{
    "statusCode": 0,
    "statusMessage": "Session Info Fetched Successfully",
    "data": {
        "restaurants": [
            9990,
            11691,
            19671,
            37384,
            12895
        ],
        "username": "12895",
        "permissions": [
            1,
            2,
            3,
            4,
            5
        ]
    }
}