{
    "statusCode": 0,
    "statusMessage": "User Info Fetched Successfully",
    "data": {
        "restaurants": [
            {
                "rest_id": 12895,
                "rest_name": "Sardarji Malai Chaap wale(Subhash Nagar)",
                "area_id": 90,
                "area_name": "Rajouri Garden",
                "city_id": 4,
                "city_name": "Delhi",
                "locality": "Subhash Nagar",
                "assured": false,
                "rating": 3.94,
                "enabled": true,
                "restMetadata": [
                    {
                        "id": 12895,
                        "restaurantId": 12895,
                        "attribute": "batch placing",
                        "value": "0"
                    },
                    {
                        "id": 78968,
                        "restaurantId": 12895,
                        "attribute": "delivery",
                        "value": "1"
                    },
                    {
                        "id": 78967,
                        "restaurantId": 12895,
                        "attribute": "is_buffet",
                        "value": "0"
                    },
                    {
                        "id": 1314771,
                        "restaurantId": 12895,
                        "attribute": "is_daily_restaurant",
                        "value": "0"
                    },
                    {
                        "id": 978557,
                        "restaurantId": 12895,
                        "attribute": "is_exempted_from_packing_charge",
                        "value": "0"
                    },
                    {
                        "id": 255650,
                        "restaurantId": 12895,
                        "attribute": "is_test_restaurant",
                        "value": "0"
                    },
                    {
                        "id": 78965,
                        "restaurantId": 12895,
                        "attribute": "preorder_enabled",
                        "value": "1"
                    },
                    {
                        "id": 78966,
                        "restaurantId": 12895,
                        "attribute": "self_pick_up",
                        "value": "0"
                    },
                    {
                        "id": 1314772,
                        "restaurantId": 12895,
                        "attribute": "short_story",
                        "value": ""
                    }
                ],
                "lat_long": "28.6379,77.11346000000003",
                "liveDate": 1465206940000,
                "createdOn": 1464164045000
            }
        ],
        "mobile": "12895",
        "userRole": 3,
        "permissions": [
            1,
            2,
            3,
            4,
            5
        ],
        "isLiveOrder": false,
        "isDotIn": false,
        "isCallPartner": false,
        "isBillMaskingRestaurant": false,
        "isFssaiAlert": false,
        "isGstAlert": true,
        "isThirtyMfEnabled": false
    }
}