{
  "status": 1,
  "code": "SUCCESS",
  "message": "",
  "data": {
    "3456": [
      {
        "id": 4861707,
        "updatedBy": "{\"source\":\"CMS Dashboard\",\"meta\":{\"user\":\"santhosh.t@swiggy.in\"}}",
        "day": "Mon",
        "openTime": 0,
        "closeTime": 200,
        "restaurantId": 3456,
        "entityId": 3456
      },
      {
        "id": 4861708,
        "updatedBy": "{\"source\":\"CMS Dashboard\",\"meta\":{\"user\":\"santhosh.t@swiggy.in\"}}",
        "day": "Tue",
        "openTime": 0,
        "closeTime": 200,
        "restaurantId": 3456,
        "entityId": 3456
      }
    ],
    "9990": [
      {
        "id": 650544622883307,
        "updatedBy": "{\"source\":\"ASTS\",\"meta\":{}}",
        "day": "Mon",
        "openTime": 200,
        "closeTime": 400,
        "restaurantId": 9990,
        "entityId": 9990
      },
      {
        "id": 650544622883308,
        "updatedBy": "{\"source\":\"ASTS\",\"meta\":{}}",
        "day": "Mon",
        "openTime": 600,
        "closeTime": 800,
        "restaurantId": 9990,
        "entityId": 9990
      },
      {
        "id": 650544622883415,
        "updatedBy": "{\"source\":\"VMS\",\"meta\":{\"user\":\"a\"}}",
        "day": "Thu",
        "openTime": 0,
        "closeTime": 200,
        "restaurantId": 9990,
        "entityId": 9990
      },
      {
        "id": 650544622883416,
        "updatedBy": "{\"source\":\"VMS\",\"meta\":{\"user\":\"a\"}}",
        "day": "Thu",
        "openTime": 1200,
        "closeTime": 2200,
        "restaurantId": 9990,
        "entityId": 9990
      }
    ]
  }
}