{
  "statusCode": 1,
  "statusMessage": "success",
  "data": {
    "totalOrdersCurrent": 10,
    "totalOrdersPrevious": 0,
    "totalOrdersArrow": "red_down",
    "totalRevenueCurrent": 0.0,
    "totalRevenuePrevious": 0.0,
    "totalRevenueArrow": "red_down",
    "deliveredOrdersCurrent": 0,
    "deliveredOrdersPrevious": 0,
    "deliveredOrdersArrow": "red_down",
    "deliveredRevenueCurrent": 0.0,
    "deliveredRevenuePrevious": 0.0,
    "deliveredRevenueArrow": "red_down",
    "cancelledOrdersCurrent": 0,
    "cancelledOrdersPrevious": 0,
    "cancelledOrdersArrow": "red_down",
    "cancelledRevenueCurrent": 0.0,
    "cancelledRevenuePrevious": 0.0,
    "cancelledRevenueArrow": "red_down",
    "restaurantCancelledOrdersCurrent": 0,
    "restaurantCancelledOrdersPrevious": 0,
    "restaurantCancelledOrdersArrow": "red_down",
    "restaurantCancelledRevenueCurrent": 0.0,
    "restaurantCancelledRevenuePrevious": 0.0,
    "restaurantCancelledRevenueArrow": "red_down",
    "reconPendingOrdersCurrent": 0,
    "reconPendingOrdersPrevious": 0,
    "reconPendingOrdersArrow": "red_down",
    "reconPendingRevenueCurrent": 0.0,
    "reconPendingRevenuePrevious": 0.0,
    "reconPendingRevenueArrow": "red_down",
    "averageOrderValueCurrent": 0.0,
    "averageOrderValuePrevious": 0.0,
    "averageOrderValueArrow": "red_down"
  }
}