{
  "statusCode": 1,
  "statusMessage": "success",
  "data": {
    "period": "TODAY",
    "vendor": {
      "id": [
        9990
      ],
      "type": "RESTAURANT"
    },
    "newCustomerArrow": "green_up",
    "repeatCustomerArrow": "red_down"
  }
}